<?xml version="1.0" encoding="UTF-8"?>
<session version="1.0">
<refactoring comment="Rename Java project &apos;AceptaElReto&apos; to &apos;AlchemistDuck&apos;&#x0A;- Original element: &apos;AceptaElReto&apos;&#x0A;- Renamed element: &apos;AceptaElReto&apos;&#x0A;- Update references to refactored element" description="Rename Java project &apos;AceptaElReto&apos;" flags="7" id="org.eclipse.jdt.ui.rename.java.project" input="=AceptaElReto" name="AlchemistDuck" references="true" stamp="1601826728814" version="1.0"/>
</session>